<?xml version="1.0" standalone="no"?>
<!DOCTYPE svg PUBLIC "-//W3C//DTD SVG 1.1//EN" "http://www.w3.org/Graphics/SVG/1.1/DTD/svg11.dtd" >
<svg xmlns="http://www.w3.org/2000/svg">
<metadata>Generated by IcoMoon</metadata>
<defs>
<font id="icomoon" horiz-adv-x="1024">
<font-face units-per-em="1024" ascent="960" descent="-64" />
<missing-glyph horiz-adv-x="1024" />
<glyph unicode="&#x20;" horiz-adv-x="512" d="" />
<glyph unicode="&#xe900;" glyph-name="file" d="M352 480h32v32h-32v-32zM352 384h32v32h-32v-32zM352 576h32v32h-32v-32zM352 288h32v32h-32v-32zM352 192h32v32h-32v-32zM416 384h256v32h-256v-32zM416 576h256v32h-256v-32zM670.016 832h-446.016v-768h576v640l-129.984 128zM736 129.984h-448v638.016h320v-94.016h128v-544zM416 288h256v32h-256v-32zM416 480h256v32h-256v-32zM416 192h256v32h-256v-32z" />
<glyph unicode="&#xe901;" glyph-name="lk" horiz-adv-x="951" d="M475.429-64c-343.771 0-475.429 7.314-475.429 109.714 0 138.971 131.657 329.143 475.429 329.143s475.429-190.171 475.429-329.143c0-102.4-131.657-109.714-475.429-109.714zM475.429 448c-138.971 0-256 117.029-256 256s117.029 256 256 256 256-117.029 256-256c0-138.971-117.029-256-256-256z" />
<glyph unicode="&#xe902;" glyph-name="search" d="M313.775 141.069l-194.183-194.183-77.608 77.608 194.183 194.129c-133.875 172.14-122.072 420.864 36.109 579.045 79.534 80.22 189.776 129.884 311.617 129.884 242.319 0 438.757-196.438 438.757-438.757 0-121.842-49.664-232.084-129.853-311.587l-0.031-0.031c-158.181-158.181-406.905-169.984-578.991-36.109zM815.212 254.733c59.458 59.593 96.225 141.848 96.225 232.691s-36.767 173.098-96.231 232.697l0.006-0.006c-59.593 59.458-141.848 96.225-232.691 96.225s-173.098-36.767-232.697-96.231l0.006 0.006c-59.458-59.593-96.225-141.848-96.225-232.691s36.767-173.098 96.231-232.697l-0.006 0.006c59.593-59.458 141.848-96.225 232.691-96.225s173.098 36.767 232.697 96.231l-0.006-0.006z" />
</font></defs></svg>